{
  "name": "Skillzy",
  "app_id": "a87c1ca1",
  "proxies": [
    {
      "path": "/api",
      "proxyUrl": "http://skillzycp.com"
    }
  ],
  "integrations": {
    "cordova": {}
  },
  "type": "ionic-angular"
}
