<svg xmlns="http://www.w3.org/2000/svg" width="40.281" height="40" viewBox="0 0 40.281 40">
  <metadata><?xpacket begin="﻿" id="W5M0MpCehiHzreSzNTczkc9d"?>
<x:xmpmeta xmlns:x="adobe:ns:meta/" x:xmptk="Adobe XMP Core 5.6-c138 79.159824, 2016/09/14-01:09:01        ">
   <rdf:RDF xmlns:rdf="http://www.w3.org/1999/02/22-rdf-syntax-ns#">
      <rdf:Description rdf:about=""/>
   </rdf:RDF>
</x:xmpmeta>
                                                                                                    
                                                                                                    
                                                                                                    
                                                                                                    
                                                                                                    
                                                                                                    
                                                                                                    
                                                                                                    
                                                                                                    
                                                                                                    
                                                                                                    
                                                                                                    
                                                                                                    
                                                                                                    
                                                                                                    
                                                                                                    
                                                                                                    
                                                                                                    
                                                                                                    
                                                                                                    
                           
<?xpacket end="w"?></metadata>
<defs>
    <style>
      .cls-1 {
        fill: #9398ab;
        fill-rule: evenodd;
      }
    </style>
  </defs>
  <path id="Address_Icon" data-name="Address Icon" class="cls-1" d="M1033.29,1350.77l-11.27-11.27a4.02,4.02,0,0,0-5.89,0l-0.49.49a4.152,4.152,0,0,0,0,5.88l-9.8,9.81a10.133,10.133,0,0,0-11.27,1.96,1.177,1.177,0,0,0,0,1.71l8.33,8.33-7.351,7.35a1.19,1.19,0,0,0,0,1.72,2.048,2.048,0,0,0,1.961,0l7.23-7.23,8.45,8.46c0.25,0,.74.24,0.98,0.24h0.98a10.133,10.133,0,0,0,1.96-11.27l9.81-9.8a4.009,4.009,0,0,0,5.88,0l0.49-.49a4.165,4.165,0,0,0,0-5.89h0Zm-1.72,3.93-0.49.49a1.639,1.639,0,0,1-2.45,0l-0.98-.98a1.178,1.178,0,0,0-1.71,0l-11.52,11.51a1.162,1.162,0,0,0-.25,1.47,7.011,7.011,0,0,1-.24,8.09l-16.665-16.66a7,7,0,0,1,8.085-.25,1.147,1.147,0,0,0,1.47-.24l11.52-11.52a1.19,1.19,0,0,0,0-1.72l-0.98-.98a1.823,1.823,0,0,1-.49-1.22,1.871,1.871,0,0,1,.49-1.23l0.49-.49a1.639,1.639,0,0,1,2.45,0l11.27,11.28a1.823,1.823,0,0,1,.49,1.22,1.871,1.871,0,0,1-.49,1.23h0Zm0,0" transform="translate(-994.219 -1338.22)"/>
</svg>
