<svg xmlns="http://www.w3.org/2000/svg" width="102" height="86" viewBox="0 0 102 86">
  <metadata><?xpacket begin="﻿" id="W5M0MpCehiHzreSzNTczkc9d"?>
<x:xmpmeta xmlns:x="adobe:ns:meta/" x:xmptk="Adobe XMP Core 5.6-c138 79.159824, 2016/09/14-01:09:01        ">
   <rdf:RDF xmlns:rdf="http://www.w3.org/1999/02/22-rdf-syntax-ns#">
      <rdf:Description rdf:about=""/>
   </rdf:RDF>
</x:xmpmeta>
                                                                                                    
                                                                                                    
                                                                                                    
                                                                                                    
                                                                                                    
                                                                                                    
                                                                                                    
                                                                                                    
                                                                                                    
                                                                                                    
                                                                                                    
                                                                                                    
                                                                                                    
                                                                                                    
                                                                                                    
                                                                                                    
                                                                                                    
                                                                                                    
                                                                                                    
                                                                                                    
                           
<?xpacket end="w"?></metadata>
<defs>
    <style>
      .cls-1 {
        fill: #933fab;
        fill-rule: evenodd;
      }
    </style>
  </defs>
  <path id="Travel_Icon" data-name="Travel Icon" class="cls-1" d="M149.61,1433h94.784a3.57,3.57,0,0,0,3.6-3.62V1365.1a3.57,3.57,0,0,0-3.6-3.62H216.9v-10.86a3.57,3.57,0,0,0-3.6-3.62h-32.5a3.574,3.574,0,0,0-3.6,3.62v10.95H149.61a3.573,3.573,0,0,0-3.6,3.62v64.27a3.67,3.67,0,0,0,3.6,3.54h0Zm34.786-78.76h25.3v7.33H184.4v-7.33Zm-31.187,14.48h26.7a3.521,3.521,0,0,0,1.582,0h30.921a2.37,2.37,0,0,0,.789.09,2.4,2.4,0,0,0,.794-0.09h26.7v24.9H216.9v-4.33a3.6,3.6,0,1,0-7.2,0v4.33H184.4v-4.33a3.6,3.6,0,1,0-7.207,0v4.33h-23.98v-24.9Zm0,32.14h23.98v4.06a3.6,3.6,0,1,0,7.207,0v-4.06h25.3v4.06a3.6,3.6,0,1,0,7.2,0v-4.06h23.98v24.9H153.209v-24.9Zm0,0" transform="translate(-146 -1347)"/>
</svg>
